<svg xmlns="http://www.w3.org/2000/svg" viewBox="0 0 63.97 63.97" width="48" height="48">
  <title>acbn-header</title>
  <g id="Layer_2" data-name="Layer 2">
    <g id="Layer_1-2" data-name="Layer 1">
      <g>
        <path d="M15.42,9.48a1.51,1.51,0,0,1,.43-.23.93.93,0,0,1,.38-.07.68.68,0,0,1,.32.05.89.89,0,0,1,.26.12.69.69,0,0,1,.16.18.78.78,0,0,1,.13.29,1,1,0,0,1-.17.78,1.83,1.83,0,0,1-.42.41l-.36.25c.14.21.35.51.64.9a.24.24,0,0,0,.15.11.46.46,0,0,0,.22-.07l.1-.07.07.11-1,.72-.08-.11.09-.06a.4.4,0,0,0,.14-.18.23.23,0,0,0-.05-.18l-1.5-2.13a.22.22,0,0,0-.16-.11.4.4,0,0,0-.21.07l-.1.06-.07-.1Zm.6,1.6.44-.31a.54.54,0,0,0,.2-.23.39.39,0,0,0,.06-.25.69.69,0,0,0,0-.25.91.91,0,0,0-.11-.22,1,1,0,0,0-.17-.18.84.84,0,0,0-.23-.12.57.57,0,0,0-.26,0,.61.61,0,0,0-.28.11l-.43.31Z" style="fill: #555"/>
        <path d="M17.67,8l1-.56.56-.3.45.7-.11.07a.05.05,0,0,0,0,0,.69.69,0,0,0-.35-.28.5.5,0,0,0-.38,0l-.1,0-1,.53.57,1,.8-.44a.3.3,0,0,0,.13-.4l-.05-.1.11-.06.49.89-.11.06q0-.09-.06-.09A.3.3,0,0,0,19.25,9l-.8.44.72,1.31,1.14-.62.09-.05c.23-.14.27-.37.15-.69l0-.07.11-.06L21,10l-.62.34L19.28,11l-.75.41-.06-.11.1-.06a.43.43,0,0,0,.15-.16.29.29,0,0,0,0-.2L17.45,8.58a.22.22,0,0,0-.15-.12.38.38,0,0,0-.22,0l-.1.05-.06-.11Z" style="fill: #555"/>
        <path d="M23.06,6.06a1.67,1.67,0,0,1,.56.39A1.62,1.62,0,0,1,24,7a1.69,1.69,0,0,1,.11.7A1.6,1.6,0,0,1,24,8.4a1.69,1.69,0,0,1-.4.57,2,2,0,0,1-.61.38,2.16,2.16,0,0,1-.71.12,1.93,1.93,0,0,1-.68-.15A1.89,1.89,0,0,1,21,8.93a1.76,1.76,0,0,1-.38-.59A1.8,1.8,0,0,1,20.66,7a2.14,2.14,0,0,1,.4-.56A2,2,0,0,1,21.67,6a1.74,1.74,0,0,1,.71-.12A1.88,1.88,0,0,1,23.06,6.06Zm-1.55.28a1.06,1.06,0,0,0-.56.81,1.61,1.61,0,0,0,.24,1.13,2,2,0,0,0,.55.6,1.64,1.64,0,0,0,.7.27A1.15,1.15,0,0,0,23.11,9a1,1,0,0,0,.45-.47,1.41,1.41,0,0,0,.12-.71,1.8,1.8,0,0,0-.25-.76,1.9,1.9,0,0,0-.52-.57,1.61,1.61,0,0,0-.65-.28,1.15,1.15,0,0,0-.64,0A.38.38,0,0,0,21.51,6.34Z" style="fill: #555"/>
        <path d="M25.27,5a1.7,1.7,0,0,1,.49,0,1.07,1.07,0,0,1,.38.08.92.92,0,0,1,.27.16.72.72,0,0,1,.19.21.55.55,0,0,1,.09.23.65.65,0,0,1,0,.31,1.16,1.16,0,0,1-.12.34.92.92,0,0,1-.33.32,1.49,1.49,0,0,1-.54.23l-.43.1c.06.24.14.6.26,1.07a.2.2,0,0,0,.11.16.45.45,0,0,0,.22,0l.11,0,0,.13-1.21.29,0-.13.11,0a.41.41,0,0,0,.19-.11.27.27,0,0,0,0-.19l-.61-2.54a.2.2,0,0,0-.11-.15.37.37,0,0,0-.22,0l-.11,0,0-.12Zm0,1.72.53-.13A.57.57,0,0,0,26,6.48a.62.62,0,0,0,.15-.22A.7.7,0,0,0,26.23,6a.65.65,0,0,0,0-.24.92.92,0,0,0-.09-.23,1.06,1.06,0,0,0-.17-.2.46.46,0,0,0-.23-.12.51.51,0,0,0-.3,0l-.52.12Z" style="fill: #555"/>
        <path d="M28.27,4.48l0,.12-.11,0a.41.41,0,0,0-.21.09.31.31,0,0,0,0,.19l.33,2.74,1.23-.15.11,0a.48.48,0,0,0,.32-.19.68.68,0,0,0,.12-.4V6.8l.13,0,0,.84-.64.08-1.28.16-.85.1V7.84l.11,0a.53.53,0,0,0,.2-.1.23.23,0,0,0,.05-.19L27.47,5a.3.3,0,0,0-.09-.17.43.43,0,0,0-.22,0h-.11l0-.13Z" style="fill: #555"/>
        <path d="M31.22,4.26l1.17,0H33l.07.83H33S33,5,33,5a.78.78,0,0,0-.18-.41.45.45,0,0,0-.35-.15h-.11l-1.1,0,0,1.19h.91c.19,0,.29-.12.3-.29,0,0,0,0,0-.12h.12l0,1h-.13V6.16a.3.3,0,0,0-.32-.28h-.91l0,1.5,1.29,0h.11c.26,0,.41-.2.45-.55V6.74h.13v.84h-.7l-1.29,0-.85,0V7.5h.11a.42.42,0,0,0,.21-.08.3.3,0,0,0,.07-.18l0-2.6a.3.3,0,0,0-.08-.18.43.43,0,0,0-.21-.07h-.11V4.27Z" style="fill: #555"/>
        <path d="M36.59,4.62l1.21.22.56.1-.09.84-.12,0v0a.69.69,0,0,0-.1-.44.46.46,0,0,0-.31-.21l-.11,0-1.08-.2L36.33,6l.9.17A.31.31,0,0,0,37.59,6s0,0,0-.11l.12,0-.18,1-.12,0c0-.06,0-.1,0-.11a.28.28,0,0,0-.25-.33l-.9-.17-.24,1.32a.26.26,0,0,0,0,.19.46.46,0,0,0,.2.1l.11,0,0,.12-1.23-.22,0-.13.11,0a.34.34,0,0,0,.22,0s.08-.08.1-.16l.47-2.56a.23.23,0,0,0,0-.19.34.34,0,0,0-.19-.11l-.11,0,0-.12Z" style="fill: #555"/>
        <path d="M40.19,5.45l0,.12c-.06,0-.1,0-.11,0a.38.38,0,0,0-.22,0,.24.24,0,0,0-.12.15L39,8.22a.23.23,0,0,0,0,.19.46.46,0,0,0,.18.12l.11,0,0,.13-1.2-.34,0-.12.11,0a.53.53,0,0,0,.23,0s.08-.07.11-.15l.7-2.51a.22.22,0,0,0,0-.2.46.46,0,0,0-.18-.12l-.11,0,0-.12Z" style="fill: #555"/>
        <path d="M41.92,6a1.66,1.66,0,0,1,.51.29,1,1,0,0,1,.29.36,1,1,0,0,1,.09.36.64.64,0,0,1-.07.31.77.77,0,0,1-.44.41,1.26,1.26,0,0,1-.75,0l.18.53c.1.28.18.49.23.64a2.16,2.16,0,0,0,.21.48.76.76,0,0,0,.31.28l0,.11-1.17-.45.05-.11a.31.31,0,0,0,.16,0c.05,0,.08,0,.09-.07s0-.1,0-.19l-.09-.26a1.22,1.22,0,0,0-.07-.2,2.49,2.49,0,0,0-.12-.36l-.12-.34s0,0,0,0h0v0a.09.09,0,0,0,0-.05.3.3,0,0,0-.24-.19l-.41,1.09a.2.2,0,0,0,0,.15.21.21,0,0,0,.08.11l.11.07.1,0,0,.12L40.22,9l-.7-.27,0-.12.11,0a.34.34,0,0,0,.22,0A.21.21,0,0,0,40,8.51L41,6.07a.24.24,0,0,0,0-.19s-.08-.09-.17-.14l-.11,0,0-.12Zm-1,1.34.39.14a.78.78,0,0,0,.58,0,.62.62,0,0,0,.36-.35.6.6,0,0,0,0-.24.71.71,0,0,0,0-.25.55.55,0,0,0-.12-.24.65.65,0,0,0-.25-.17l-.5-.19Z" style="fill: #555"/>
        <path d="M45.39,7.51a1.55,1.55,0,0,1,.45.4.22.22,0,0,1,.07.09l.07.08.05.05a0,0,0,0,0,.06,0,.22.22,0,0,0,.07-.07.25.25,0,0,0,0-.07l.12.07-.43.9-.11-.07a1.27,1.27,0,0,0,0-.42.77.77,0,0,0-.12-.39,1.11,1.11,0,0,0-.33-.36,1.17,1.17,0,0,0-.48-.22.65.65,0,0,0-.46,0,.47.47,0,0,0-.21.25.44.44,0,0,0,0,.32,1.63,1.63,0,0,0,.25.38c.13.14.25.27.37.38a3,3,0,0,1,.38.41,1.72,1.72,0,0,1,.25.45.76.76,0,0,1,0,.45,1.1,1.1,0,0,1-.24.45.79.79,0,0,1-.44.26,1.19,1.19,0,0,1-.56,0,1.81,1.81,0,0,1-.58-.28,2,2,0,0,1-.52-.49l0,0a1.47,1.47,0,0,0-.1-.13L43,9.87h-.07a.3.3,0,0,0-.07.08.21.21,0,0,0,0,.06L42.66,10l.47-.9.12.06a1.18,1.18,0,0,0,0,.53,1.37,1.37,0,0,0,.29.56,1.41,1.41,0,0,0,.53.38.86.86,0,0,0,.59,0,.53.53,0,0,0,.29-.26A.5.5,0,0,0,45,10a1.15,1.15,0,0,0-.15-.32,2.51,2.51,0,0,0-.26-.31L44.31,9A2.46,2.46,0,0,1,44,8.7a1.63,1.63,0,0,1-.22-.38.9.9,0,0,1,0-.36.71.71,0,0,1,.11-.31.74.74,0,0,1,.2-.23.62.62,0,0,1,.23-.14A1.25,1.25,0,0,1,45.39,7.51Z" style="fill: #555"/>
        <path d="M49.54,10.26l-.43.72L49,10.91a.05.05,0,0,0,0,0,.69.69,0,0,0,.1-.44.51.51,0,0,0-.19-.33L48.84,10l-.42-.29L46.83,12a.3.3,0,0,0,0,.19.56.56,0,0,0,.13.18l.1.06-.08.11-1-.72.07-.1.1.06a.4.4,0,0,0,.21.06.22.22,0,0,0,.16-.1L48,9.48l-.47-.33-.09-.06C47.27,9,47,9,46.8,9.27v0l0,0v0l-.1-.08.53-.65Z" style="fill: #555"/>
      </g>
      <g>
        <path d="M16.26,50l-.73.72-.09-.1,0-.07a1,1,0,0,0,.15-.37.83.83,0,0,0,0-.41,1.14,1.14,0,0,0-.48-.77,1.08,1.08,0,0,0-.63-.23,1.29,1.29,0,0,0-.71.15,1.92,1.92,0,0,0-.63.51,1.74,1.74,0,0,0-.41,1,1.65,1.65,0,0,0,.38,1,2,2,0,0,0,.48.43,1.5,1.5,0,0,0,.51.22l0,.22a2.59,2.59,0,0,1-.68-.32,2.68,2.68,0,0,1-.63-.59,2.8,2.8,0,0,1-.34-.61,2.49,2.49,0,0,1-.13-.66,1.63,1.63,0,0,1,.12-.68,1.79,1.79,0,0,1,.44-.6,2,2,0,0,1,.89-.45,1.76,1.76,0,0,1,.94.07,2.08,2.08,0,0,1,.81.52,1.51,1.51,0,0,1,.33.58,1.27,1.27,0,0,1,0,.14l0,.12L16,50s0,0,0,0,.05,0,.09,0l.06,0Z" style="fill: #555"/>
        <path d="M18.13,51.5l-.74,2.72c0,.06,0,.11,0,.13a.86.86,0,0,0,0,.13,1.3,1.3,0,0,1,0,.15v.13a.57.57,0,0,0,0,.14.61.61,0,0,0,.05.12.48.48,0,0,0,.09.11l-.09.1-.2-.15-.4-.32-.3-.22.08-.1a.71.71,0,0,0,.16.07.12.12,0,0,0,.11,0s0,0,0,0a1.84,1.84,0,0,0,.06-.18c.13-.48.21-.76.23-.83L16,52.57l-.95.48s-.05,0-.05,0a.13.13,0,0,0,0,.12.33.33,0,0,0,.11.13l-.08.1-.72-.55.09-.1.11,0,.1,0h.2l.1,0,.09,0,.1,0,.1,0,.1,0,.1,0,.93-.46,1.06-.52.54-.3Zm-1.88,1,.93.73c.13-.47.26-.93.38-1.39Z" style="fill: #555"/>
        <path d="M20.44,53.05l-.07.11-.1,0a.49.49,0,0,0-.24,0,.21.21,0,0,0-.14.11l-.46.77-.49.82a1,1,0,0,0-.13.79,1,1,0,0,0,.51.58,1.12,1.12,0,0,0,.78.14,1,1,0,0,0,.67-.55l.72-1.19.17-.29a.3.3,0,0,0-.1-.41l-.1-.06.07-.11.92.51-.07.11-.1-.05a.32.32,0,0,0-.42.13L21,55.82a1.31,1.31,0,0,1-.86.67,1.44,1.44,0,0,1-1.05-.18,1.33,1.33,0,0,1-.68-.79,1.23,1.23,0,0,1,.17-1.05L19.47,53a.2.2,0,0,0,0-.19s-.07-.1-.16-.17l-.1-.06.07-.11Z" style="fill: #555"/>
        <path d="M23.8,54.58a1.76,1.76,0,0,1,.52.35l.08.08.07.08.06,0a.08.08,0,0,0,.07,0,.18.18,0,0,0,.06-.08l0-.07.12.05-.34.94-.12,0a1.26,1.26,0,0,0,0-.43,1,1,0,0,0-.17-.39,1.11,1.11,0,0,0-.38-.32,1.38,1.38,0,0,0-.53-.17.72.72,0,0,0-.47.09.51.51,0,0,0-.2.27.5.5,0,0,0,0,.32,1.85,1.85,0,0,0,.31.35c.14.13.29.24.43.35a3.42,3.42,0,0,1,.43.36,1.42,1.42,0,0,1,.31.42.68.68,0,0,1,.06.45,1,1,0,0,1-.19.48.9.9,0,0,1-.43.31,1.45,1.45,0,0,1-.59,0,2.12,2.12,0,0,1-.63-.21,2.58,2.58,0,0,1-.6-.44v0l-.13-.12-.08-.06a.08.08,0,0,0-.08,0,.18.18,0,0,0-.06.08l0,.07-.12,0,.39-1,.13,0a1,1,0,0,0,.06.54,1.55,1.55,0,0,0,.37.53,1.44,1.44,0,0,0,.58.32.93.93,0,0,0,.62,0,.51.51,0,0,0,.27-.29.47.47,0,0,0,0-.4,1,1,0,0,0-.2-.3,2,2,0,0,0-.3-.28l-.34-.25a4.57,4.57,0,0,1-.34-.31,1.38,1.38,0,0,1-.26-.35.7.7,0,0,1-.1-.36.66.66,0,0,1,.08-.32,1.2,1.2,0,0,1,.18-.26.82.82,0,0,1,.22-.16A1.35,1.35,0,0,1,23.8,54.58Z" style="fill: #555"/>
        <path d="M26,55.42l1.18.29.64.16-.16.83-.12,0v-.05a.7.7,0,0,0-.07-.44.46.46,0,0,0-.3-.24l-.12,0L26,55.64l-.31,1.16.92.23a.34.34,0,0,0,.39-.2,1.1,1.1,0,0,0,0-.11l.13,0-.27,1-.13,0,0-.11a.3.3,0,0,0-.24-.36L25.59,57l-.39,1.46,1.31.33.11,0c.26.06.46-.08.6-.4,0,0,0-.06,0-.08l.12,0-.22.82-.7-.18-1.31-.32-.86-.22,0-.12.12,0a.51.51,0,0,0,.23,0,.26.26,0,0,0,.12-.16l.68-2.53a.2.2,0,0,0,0-.19.37.37,0,0,0-.19-.13l-.11,0,0-.12Z" style="fill: #555"/>
        <path d="M29.53,56a2.26,2.26,0,0,1,.6.21l.1.07.09.05s.05,0,.07,0,.05,0,.06,0a.19.19,0,0,0,0-.09s0-.06,0-.08h.13l-.08,1h-.13a1.18,1.18,0,0,0-.1-.42.92.92,0,0,0-.27-.33,1,1,0,0,0-.45-.21,1.32,1.32,0,0,0-.56,0,.67.67,0,0,0-.43.2.56.56,0,0,0-.12.31.41.41,0,0,0,.12.3,1.64,1.64,0,0,0,.39.27l.51.22a3,3,0,0,1,.51.25,1.46,1.46,0,0,1,.42.33.73.73,0,0,1,.18.42,1,1,0,0,1-.07.51.8.8,0,0,1-.33.4,1.38,1.38,0,0,1-.55.19,2.24,2.24,0,0,1-.67,0,2.57,2.57,0,0,1-.69-.28h0a.7.7,0,0,0-.14-.08.19.19,0,0,0-.11,0,.07.07,0,0,0-.07,0,.34.34,0,0,0,0,.1s0,0,0,.07h-.14l.13-1h.14a1.12,1.12,0,0,0,.2.5,1.48,1.48,0,0,0,.5.42,1.46,1.46,0,0,0,.65.17,1,1,0,0,0,.58-.2.56.56,0,0,0,.1-.74.87.87,0,0,0-.26-.24,2.64,2.64,0,0,0-.37-.2l-.39-.16a3.17,3.17,0,0,1-.41-.21,1.72,1.72,0,0,1-.36-.28.68.68,0,0,1-.18-.32.76.76,0,0,1,0-.33,1.45,1.45,0,0,1,.11-.29,1.2,1.2,0,0,1,.17-.21A1.39,1.39,0,0,1,29.53,56Z" style="fill: #555"/>
        <path d="M34,56.13a2.23,2.23,0,0,1,.62.1l.12.05a.23.23,0,0,1,.1,0h.07a.06.06,0,0,0,.06,0,.22.22,0,0,0,0-.1v-.08h.14l.11,1H35.1a1.18,1.18,0,0,0-.18-.39,1.14,1.14,0,0,0-.33-.27,1.18,1.18,0,0,0-.49-.13,1.31,1.31,0,0,0-.55.07.66.66,0,0,0-.38.27.47.47,0,0,0-.06.33.47.47,0,0,0,.18.27,1.86,1.86,0,0,0,.44.19,5.29,5.29,0,0,0,.54.13,3.25,3.25,0,0,1,.55.15,1.47,1.47,0,0,1,.47.24.74.74,0,0,1,.26.38,1,1,0,0,1,0,.52.79.79,0,0,1-.25.45,1.27,1.27,0,0,1-.51.28,1.93,1.93,0,0,1-.66.08,2.62,2.62,0,0,1-.73-.14h0l-.16-.06a.22.22,0,0,0-.11,0,.09.09,0,0,0-.07,0,3.67,3.67,0,0,1,0,.18h-.13l-.08-1H33a1,1,0,0,0,.3.46,1.51,1.51,0,0,0,.57.32,1.38,1.38,0,0,0,.67,0,.86.86,0,0,0,.53-.3.49.49,0,0,0,.12-.37.51.51,0,0,0-.16-.37.86.86,0,0,0-.31-.19,1.87,1.87,0,0,0-.4-.13L33.88,58l-.44-.13a1.88,1.88,0,0,1-.4-.21.86.86,0,0,1-.25-.29.76.76,0,0,1-.08-.32,1,1,0,0,1,0-.3.92.92,0,0,1,.13-.24A1.34,1.34,0,0,1,34,56.13Z" style="fill: #555"/>
        <path d="M36.37,56l1.19-.23.66-.13.23.82-.13,0a.06.06,0,0,0,0,0,.78.78,0,0,0-.26-.38.59.59,0,0,0-.39-.08l-.11,0-1.13.22.24,1.17.94-.18a.29.29,0,0,0,.25-.34s0,0,0-.11l.13,0,.21,1-.13,0c0-.06,0-.1,0-.1a.33.33,0,0,0-.38-.23l-.93.18.3,1.48,1.32-.25.12,0c.26-.06.38-.27.36-.62a.25.25,0,0,1,0-.08l.13,0,.17.83-.72.13-1.32.26-.88.17,0-.12.11,0a.51.51,0,0,0,.21-.11.32.32,0,0,0,0-.2L36,56.42a.26.26,0,0,0-.12-.16.39.39,0,0,0-.23,0l-.11,0,0-.13Z" style="fill: #555"/>
        <path d="M41.46,54.59l.39.93-.13,0,0-.06a1.17,1.17,0,0,0-.3-.28A1,1,0,0,0,41,55a1.21,1.21,0,0,0-.92.13,1.07,1.07,0,0,0-.47.47,1.3,1.3,0,0,0-.13.69,1.58,1.58,0,0,0,.24.76,1.67,1.67,0,0,0,1.95.83,2,2,0,0,0,.6-.27,1.51,1.51,0,0,0,.41-.35l.19.11a2.33,2.33,0,0,1-.57.48,2.55,2.55,0,0,1-.81.33,2.8,2.8,0,0,1-.71.06,2.29,2.29,0,0,1-.69-.14,1.72,1.72,0,0,1-.6-.37,1.67,1.67,0,0,1-.39-.62,1.72,1.72,0,0,1-.08-1,1.66,1.66,0,0,1,.42-.81,2,2,0,0,1,.83-.51,1.68,1.68,0,0,1,.68-.07l.14,0,.13,0h.09a.09.09,0,0,0,.06,0,.34.34,0,0,0,0-.09.45.45,0,0,0,0-.08Z" style="fill: #555"/>
        <path d="M44.85,53.34a1.77,1.77,0,0,1,.63.31,1.61,1.61,0,0,1,.47.54,1.81,1.81,0,0,1,.22.68,1.78,1.78,0,0,1-.42,1.3,1.74,1.74,0,0,1-.58.46,2.07,2.07,0,0,1-.72.22,2.15,2.15,0,0,1-.72-.06,2.05,2.05,0,0,1-.63-.31,1.61,1.61,0,0,1-.47-.54,1.46,1.46,0,0,1-.21-.68,1.57,1.57,0,0,1,.07-.69,1.76,1.76,0,0,1,.34-.61,1.74,1.74,0,0,1,.58-.46,2,2,0,0,1,.72-.22A1.92,1.92,0,0,1,44.85,53.34Zm-1.57.49a1,1,0,0,0-.46.88,1.55,1.55,0,0,0,.39,1.09,2.06,2.06,0,0,0,.66.52,1.64,1.64,0,0,0,.76.19,1.16,1.16,0,0,0,.67-.21,1,1,0,0,0,.41-.53,1.34,1.34,0,0,0,0-.72,1.63,1.63,0,0,0-.36-.72,2,2,0,0,0-.61-.5,1.77,1.77,0,0,0-.72-.2,1.27,1.27,0,0,0-.65.13A.35.35,0,0,0,43.28,53.83Z" style="fill: #555"/>
        <path d="M45.83,52.17l3.3.9-1.39-1.74a.33.33,0,0,0-.44-.07s0,0-.09.07l-.09-.12.84-.62.09.11-.09.07a.3.3,0,0,0,0,.42l1.58,2,.27.33-.18.13-1.72-.46-1.93-.52h0l1.58,2a.34.34,0,0,0,.43.07l.09-.07.08.1-.84.63-.08-.1s.08-.07.09-.07a.29.29,0,0,0,0-.42l-1.57-2a.32.32,0,0,0-.43-.07l-.1.06-.08-.11Z" style="fill: #555"/>
        <path d="M48.11,50.44l.08-.08.1-.1.25-.25.5-.5a2.49,2.49,0,0,1,.49-.42,1.69,1.69,0,0,1,.88-.24,1.77,1.77,0,0,1,.9.22,1.61,1.61,0,0,1,.8,1A1.63,1.63,0,0,1,52,51.28a3.7,3.7,0,0,1-.43.55l-1.09,1.1-.09-.08.08-.09a.52.52,0,0,0,.1-.2.24.24,0,0,0-.08-.17l-2-1.81a.24.24,0,0,0-.19-.07.43.43,0,0,0-.21.11l-.08.07L48,50.61Zm2.24,1.18.17.16.17.16.24.22.42-.43a1.65,1.65,0,0,0,.4-.54,1.23,1.23,0,0,0,0-.82,1.69,1.69,0,0,0-.57-.76,1.82,1.82,0,0,0-.74-.36,1.21,1.21,0,0,0-.71,0,1.65,1.65,0,0,0-.54.42l-.42.43Z" style="fill: #555"/>
      </g>
      <circle cx="20.63" cy="19.08" r="3" style="fill: none;stroke: #555;stroke-miterlimit: 10;stroke-width: 2px"/>
      <circle cx="42.63" cy="19.08" r="3" style="fill: none;stroke: #555;stroke-miterlimit: 10;stroke-width: 2px"/>
      <polyline points="50.21 46.03 45.33 25.79 54.33 29.79 54.33 23.91 9.33 23.91 9.33 29.79 18.33 25.79 13.33 45.79" style="fill: none;stroke: #555;stroke-miterlimit: 10;stroke-width: 2px"/>
      <line x1="11.14" y1="45.96" x2="53.14" y2="45.96" style="fill: none;stroke: #555;stroke-miterlimit: 10;stroke-width: 1.5px"/>
      <polyline points="26.77 45.91 22.96 25.54 31.67 30.08 40.14 25.91 36.46 45.91" style="fill: none;stroke: #555;stroke-miterlimit: 10;stroke-width: 2px"/>
      <circle cx="31.99" cy="31.99" r="30.99" style="fill: none;stroke: #555;stroke-miterlimit: 10;stroke-width: 2px"/>
    </g>
  </g>
</svg>
